…
tidy_filtered <- tidy %>%
  filter(!word %in% stop_words$word) %>% 
  filter(nchar(word) > 2)

tidy_filtered <- tidy_filtered[-grep("\\b\\d+\\b", tidy_filtered$word), ]

rows_with_numbers <- grepl("\\d+", tidy_filtered$word)
tidy_filtered <- tidy_filtered[!rows_with_numbers, ]
 
rows_with_spaces <- grepl("\\s+", tidy_filtered$word)
tidy_filtered <- tidy_filtered[!rows_with_spaces, ]

tidy_filtered

## # A tibble: 32,089 × 10
##    reviewerID     asin    reviewerName helpful__001 helpful__002 overall summary
##    <chr>          <chr>   <chr>               <dbl>        <dbl>   <dbl> <chr>  
##  1 A1YJEY40YUW4SE 780639… Andrea                  3            4       1 Don't …
##  2 A1YJEY40YUW4SE 780639… Andrea                  3            4       1 Don't …
##  3 A1YJEY40YUW4SE 780639… Andrea                  3            4       1 Don't …
##  4 A1YJEY40YUW4SE 780639… Andrea                  3            4       1 Don't …
##  5 A1YJEY40YUW4SE 780639… Andrea                  3            4       1 Don't …
##  6 A1YJEY40YUW4SE 780639… Andrea                  3            4       1 Don't …
##  7 A1YJEY40YUW4SE 780639… Andrea                  3            4       1 Don't …
##  8 A1YJEY40YUW4SE 780639… Andrea                  3            4       1 Don't …
##  9 A1YJEY40YUW4SE 780639… Andrea                  3            4       1 Don't …
## 10 A60XNB876KYML  780639… Jessica H.              1            1       3 OK Pal…
## # ℹ 32,079 more rows
## # ℹ 3 more variables: unixReviewTime <dbl>, reviewTime <chr>, word <chr>

Step 4: We Pre-Process the Text by Removing all numbers, whitespaces,
stop words, and words with less than 3 characters. Now the text has been
cleaned and removed of noise.

Count the most frequently used words.

tidy_counts <- tidy_filtered %>%
  count(word, sort = TRUE)

tidy_counts 

## # A tibble: 5,655 × 2
##    word         n
##    <chr>    <int>
##  1 skin      1256
##  2 product    648
##  3 dry        343
##  4 cream      265
##  5 hair       248
##  6 lotion     237
##  7 day        229
##  8 time       219
##  9 acne       209
## 10 products   202
## # ℹ 5,645 more rows
…
Use pairwise_cor() from the widyr package to calculate the
correlation among words in the tweets (filter for at least relatively
common words first n() >= 10).Explain the results.{it may take a few
minutes to run this chunck of code}.

word_cors <- tidy_filtered %>%
  group_by(word) %>%
  filter(n() >= 10) %>%
  pairwise_cor(word, reviewerID, sort = TRUE)

word_cors

## # A tibble: 366,630 × 3
##    item1    item2    correlation
##    <chr>    <chr>          <dbl>
##  1 peroxide benzoyl        0.935
##  2 benzoyl  peroxide       0.935
##  3 puf      buf            0.864
##  4 buf      puf            0.864
##  5 iron     curling        0.843
##  6 curling  iron           0.843
##  7 tar      coal           0.830
##  8 coal     tar            0.830
##  9 hydrox   alpha          0.811
## 10 alpha    hydrox         0.811
## # ℹ 366,620 more rows
…
